{
  "photos":{
    "page":1,
    "pages":10,
    "perpage":100,
    "total":1000,
    "photo":[
      {
        "id":"29015788397",
        "owner":"158141620@N03",
        "secret":"05c43fdb6a",
        "server":"850",
        "farm":1,
        "title":"St-Petersburg. Russia.",
        "ispublic":1,
        "isfriend":0,
        "isfamily":0
      },
      {
        "id":"29015793487",
        "owner":"123953722@N08",
        "secret":"937df3846c",
        "server":"1813",
        "farm":2,
        "title":"..",
        "ispublic":1,
        "isfriend":0,
        "isfamily":0
      },
      {
        "id":"29015794957",
        "owner":"150105566@N03",
        "secret":"9feef1bac2",
        "server":"862",
        "farm":1,
        "title":"P7140780.jpg",
        "ispublic":1,
        "isfriend":0,
        "isfamily":0
      },
      {
        "id":"29015795317",
        "owner":"133193744@N05",
        "secret":"a314fa162d",
        "server":"1779",
        "farm":2,
        "title":"Poppy",
        "ispublic":1,
        "isfriend":0,
        "isfamily":0
      },
      {
        "id":"29015795717",
        "owner":"159970814@N08",
        "secret":"7cba3c6891",
        "server":"1818",
        "farm":2,
        "title":"#\uc774\uc131\ub300\ud654 #\uc5b4\ud50c\uc18c\uac1c #\uc885\uc554",
        "ispublic":1,
        "isfriend":0,
        "isfamily":0
      },
      {
        "id":"29015795797",
        "owner":"157618744@N07",
        "secret":"c76c94fd62",
        "server":"1818",
        "farm":2,
        "title":"Photo",
        "ispublic":1,
        "isfriend":0,
        "isfamily":0
      },
      {
        "id":"29015805307",
        "owner":"163765152@N02",
        "secret":"dc827387a2",
        "server":"1832",
        "farm":2,
        "title":"scavenger hunt",
        "ispublic":1,
        "isfriend":0,
        "isfamily":0
      },
      {
        "id":"29015805377",
        "owner":"153247436@N03",
        "secret":"8761933f8b",
        "server":"1814",
        "farm":2,
        "title":"Serverless cloud computing is the next big thing",
        "ispublic":1,
        "isfriend":0,
        "isfamily":0
      },
      {
        "id":"30085078098",
        "owner":"141499388@N07",
        "secret":"423440a565",
        "server":"932",
        "farm":1,
        "title":"",
        "ispublic":1,
        "isfriend":0,
        "isfamily":0
      },
      {
        "id":"30085078738",
        "owner":"143664442@N02",
        "secret":"bb9c4314c2",
        "server":"1832",
        "farm":2,
        "title":"www.otobakekspertiz.com",
        "ispublic":1,
        "isfriend":0,
        "isfamily":0
      },
      {
        "id":"30085079618",
        "owner":"125761560@N06",
        "secret":"87c990c612",
        "server":"1772",
        "farm":2,
        "title":"Porto",
        "ispublic":1,
        "isfriend":0,
        "isfamily":0
      },
      {
        "id":"30085081328",
        "owner":"94014483@N04",
        "secret":"f70cb54c8e",
        "server":"1773",
        "farm":2,
        "title":"2018-08-09_05-40-44",
        "ispublic":1,
        "isfriend":0,
        "isfamily":0
      },
      {
        "id":"30085083208",
        "owner":"156620272@N05",
        "secret":"2bdc415b5b",
        "server":"1818",
        "farm":2,
        "title":"Infographics : How to Say \u2018Friend\u2019 Around the World #infographic #HowTo #Friend #language",
        "ispublic":1,
        "isfriend":0,
        "isfamily":0
      },
      {
        "id":"30085084198",
        "owner":"7429230@N03",
        "secret":"5e66f5c793",
        "server":"852",
        "farm":1,
        "title":"",
        "ispublic":1,
        "isfriend":0,
        "isfamily":0
      },
      {
        "id":"30085084868",
        "owner":"140841574@N03",
        "secret":"02cc06810a",
        "server":"1774",
        "farm":2,
        "title":"Can\u2019t Stop the Light",
        "ispublic":1,
        "isfriend":0,
        "isfamily":0
      },
      {
        "id":"30085085518",
        "owner":"45640363@N06",
        "secret":"eff14b6e88",
        "server":"1794",
        "farm":2,
        "title":"IMG_5528",
        "ispublic":1,
        "isfriend":0,
        "isfamily":0
      },
      {
        "id":"30085085578",
        "owner":"152674184@N08",
        "secret":"341e45cf29",
        "server":"937",
        "farm":1,
        "title":"Romantic Love Quotes :  http:\/\/iglovequotes.net\/",
        "ispublic":1,
        "isfriend":0,
        "isfamily":0
      },
      {
        "id":"30085086588",
        "owner":"155140314@N03",
        "secret":"17bc235ab9",
        "server":"1831",
        "farm":2,
        "title":"Romantic Love Quotes :  http:\/\/iglovequotes.net\/",
        "ispublic":1,
        "isfriend":0,
        "isfamily":0
      },
      {
        "id":"30085093468",
        "owner":"45258245@N02",
        "secret":"c49ca7cbb3",
        "server":"1792",
        "farm":2,
        "title":"EMRA",
        "ispublic":1,
        "isfriend":0,
        "isfamily":0
      },
      {
        "id":"42145198930",
        "owner":"158191944@N06",
        "secret":"3d427c0527",
        "server":"1814",
        "farm":2,
        "title":"9DSKG.jpg",
        "ispublic":1,
        "isfriend":0,
        "isfamily":0
      },
      {
        "id":"42145200170",
        "owner":"152978905@N08",
        "secret":"bb4268dabd",
        "server":"1796",
        "farm":2,
        "title":"Cascade Trainer Rollers For Sale",
        "ispublic":1,
        "isfriend":0,
        "isfamily":0
      },
      {
        "id":"42145200890",
        "owner":"148267869@N04",
        "secret":"736d1dd31e",
        "server":"1796",
        "farm":2,
        "title":"Cheap Comfort Glow QEH1500 Deluxe Infrared Quartz Comfort Furnace",
        "ispublic":1,
        "isfriend":0,
        "isfamily":0
      },
      {
        "id":"42145201140",
        "owner":"138919476@N04",
        "secret":"3e2129393c",
        "server":"929",
        "farm":1,
        "title":"www.otobakekspertiz.com",
        "ispublic":1,
        "isfriend":0,
        "isfamily":0
      },
      {
        "id":"42145208590",
        "owner":"141780386@N04",
        "secret":"16cabfe465",
        "server":"934",
        "farm":1,
        "title":"Camino al trabajo",
        "ispublic":1,
        "isfriend":0,
        "isfamily":0
      },
      {
        "id":"42145209180",
        "owner":"159404554@N08",
        "secret":"78fef22843",
        "server":"857",
        "farm":1,
        "title":"2018-08-10_00-41-57",
        "ispublic":1,
        "isfriend":0,
        "isfamily":0
      },
      {
        "id":"42145209700",
        "owner":"142004785@N03",
        "secret":"88d3519491",
        "server":"1833",
        "farm":2,
        "title":"",
        "ispublic":1,
        "isfriend":0,
        "isfamily":0
      },
      {
        "id":"42145211030",
        "owner":"8294527@N02",
        "secret":"b38b3afd32",
        "server":"934",
        "farm":1,
        "title":"Enero 2018",
        "ispublic":1,
        "isfriend":0,
        "isfamily":0
      },
      {
        "id":"42145211750",
        "owner":"160015515@N03",
        "secret":"5574d58fee",
        "server":"1778",
        "farm":2,
        "title":"20180715_201438",
        "ispublic":1,
        "isfriend":0,
        "isfamily":0
      },
      {
        "id":"42145213070",
        "owner":"154218064@N08",
        "secret":"fa85d3c92f",
        "server":"1791",
        "farm":2,
        "title":"Serverless cloud computing is the next big thing",
        "ispublic":1,
        "isfriend":0,
        "isfamily":0
      },
      {
        "id":"42145213810",
        "owner":"140833529@N05",
        "secret":"b81a8ecc0a",
        "server":"862",
        "farm":1,
        "title":"Serverless cloud computing is the next big thing",
        "ispublic":1,
        "isfriend":0,
        "isfamily":0
      },
      {
        "id":"42145213920",
        "owner":"166010808@N08",
        "secret":"bcf4afb3a8",
        "server":"930",
        "farm":1,
        "title":"#\ubab8\uc9f1\ub140\ubc88\uac1c\ud305 #\ubab8\uc9f1\ud6c8\ub0a8 #\uc5f0\ud638",
        "ispublic":1,
        "isfriend":0,
        "isfamily":0
      },
      {
        "id":"42145214190",
        "owner":"31315061@N05",
        "secret":"f4e35c2a7e",
        "server":"1773",
        "farm":2,
        "title":"160715Samik-10055.jpg",
        "ispublic":1,
        "isfriend":0,
        "isfamily":0
      },
      {
        "id":"42145214330",
        "owner":"156409242@N07",
        "secret":"65aab781b9",
        "server":"862",
        "farm":1,
        "title":"TF-20180726-Q43A5859.jpg",
        "ispublic":1,
        "isfriend":0,
        "isfamily":0
      },
      {
        "id":"42145214580",
        "owner":"148367700@N02",
        "secret":"e5f88467c0",
        "server":"851",
        "farm":1,
        "title":"D2",
        "ispublic":1,
        "isfriend":0,
        "isfamily":0
      },
      {
        "id":"42145214770",
        "owner":"162922117@N08",
        "secret":"4e0751a2fd",
        "server":"853",
        "farm":1,
        "title":"20180809_104029",
        "ispublic":1,
        "isfriend":0,
        "isfamily":0
      },
      {
        "id":"42145214790",
        "owner":"157872302@N05",
        "secret":"a0e6c8c15b",
        "server":"851",
        "farm":1,
        "title":"DSC02632",
        "ispublic":1,
        "isfriend":0,
        "isfamily":0
      },
      {
        "id":"42145215230",
        "owner":"149010237@N08",
        "secret":"6b5b8f1302",
        "server":"1832",
        "farm":2,
        "title":"2018_08_09_164223.jpg",
        "ispublic":1,
        "isfriend":0,
        "isfamily":0
      },
      {
        "id":"42145215560",
        "owner":"143443426@N02",
        "secret":"11e430d340",
        "server":"1773",
        "farm":2,
        "title":"\u0662\u0660\u0661\u0667\u0660\u0667\u0663\u0660_\u0661\u0661\u0660\u0669\u0664\u0669",
        "ispublic":1,
        "isfriend":0,
        "isfamily":0
      },
      {
        "id":"43048444355",
        "owner":"166059904@N04",
        "secret":"d465a73d71",
        "server":"860",
        "farm":1,
        "title":"Wow",
        "ispublic":1,
        "isfriend":0,
        "isfamily":0
      },
      {
        "id":"43048447105",
        "owner":"134227194@N04",
        "secret":"41d1e522b0",
        "server":"862",
        "farm":1,
        "title":"Let me take you to the beach",
        "ispublic":1,
        "isfriend":0,
        "isfamily":0
      },
      {
        "id":"43048447215",
        "owner":"58058851@N03",
        "secret":"175348d79e",
        "server":"1839",
        "farm":2,
        "title":"The kids enjoying the sunset with the Rock of Gibraltar in the distance #sunset #sunsets #sunset_pics #streetphotography #candid #kids #athomeoutdoors #silhouette #gibraltar #landscapephotography #landscape #sonyalpha #sonyalphaportrait #summer",
        "ispublic":1,
        "isfriend":0,
        "isfamily":0
      },
      {
        "id":"43048448635",
        "owner":"49263070@N07",
        "secret":"00eb6c3a6f",
        "server":"942",
        "farm":1,
        "title":"2018-08-09_11-40-23",
        "ispublic":1,
        "isfriend":0,
        "isfamily":0
      },
      {
        "id":"43048448825",
        "owner":"115664463@N07",
        "secret":"e035f08182",
        "server":"1795",
        "farm":2,
        "title":"Rike Park",
        "ispublic":1,
        "isfriend":0,
        "isfamily":0
      },
      {
        "id":"43048452865",
        "owner":"162609566@N06",
        "secret":"24bcd20f81",
        "server":"858",
        "farm":1,
        "title":"The one-stop construction and interior design firm https:\/\/t.co\/RSht65Qvxe",
        "ispublic":1,
        "isfriend":0,
        "isfamily":0
      },
      {
        "id":"43048455015",
        "owner":"8073179@N03",
        "secret":"e3919ce4c3",
        "server":"1817",
        "farm":2,
        "title":"2018-08-09_05-41-22",
        "ispublic":1,
        "isfriend":0,
        "isfamily":0
      },
      {
        "id":"43048456045",
        "owner":"101314642@N04",
        "secret":"9615b5feea",
        "server":"855",
        "farm":1,
        "title":"When your amazing friend invites you to beat the heat...Also reading my first pick for this month\u2019s #YearofYA theme! #IMissedMyPool",
        "ispublic":1,
        "isfriend":0,
        "isfamily":0
      },
      {
        "id":"43048456985",
        "owner":"142062237@N08",
        "secret":"8bba2c5904",
        "server":"849",
        "farm":1,
        "title":"IMG-20180809-WA0051",
        "ispublic":1,
        "isfriend":0,
        "isfamily":0
      },
      {
        "id":"43048457435",
        "owner":"103372284@N02",
        "secret":"5c436abf8a",
        "server":"1811",
        "farm":2,
        "title":"Sacred Ibis -a- 180713",
        "ispublic":1,
        "isfriend":0,
        "isfamily":0
      },
      {
        "id":"43048458485",
        "owner":"163982094@N04",
        "secret":"22dac7624b",
        "server":"939",
        "farm":1,
        "title":"IMG-20180615-WA0022",
        "ispublic":1,
        "isfriend":0,
        "isfamily":0
      },
      {
        "id":"43048458705",
        "owner":"160336972@N02",
        "secret":"cb41ffe38b",
        "server":"855",
        "farm":1,
        "title":"@010_3425700 : [New post] Baju Korporat https:\/\/t.co\/4ndXhj2tLC",
        "ispublic":1,
        "isfriend":0,
        "isfamily":0
      },
      {
        "id":"43048460205",
        "owner":"94203628@N07",
        "secret":"1f93a9559d",
        "server":"1833",
        "farm":2,
        "title":"Duck duck...",
        "ispublic":1,
        "isfriend":0,
        "isfamily":0
      },
      {
        "id":"43048461935",
        "owner":"141803201@N03",
        "secret":"69336f4732",
        "server":"1792",
        "farm":2,
        "title":"",
        "ispublic":1,
        "isfriend":0,
        "isfamily":0
      },
      {
        "id":"43048461955",
        "owner":"38023011@N00",
        "secret":"db7616fa30",
        "server":"853",
        "farm":1,
        "title":"Aug_9",
        "ispublic":1,
        "isfriend":0,
        "isfamily":0
      },
      {
        "id":"43048463055",
        "owner":"163823273@N02",
        "secret":"43de034768",
        "server":"852",
        "farm":1,
        "title":"20180809_184212",
        "ispublic":1,
        "isfriend":0,
        "isfamily":0
      },
      {
        "id":"43048463845",
        "owner":"159826057@N06",
        "secret":"1ecac7e1c4",
        "server":"928",
        "farm":1,
        "title":"Serverless cloud computing is the next big thing",
        "ispublic":1,
        "isfriend":0,
        "isfamily":0
      },
      {
        "id":"43048464045",
        "owner":"10194419@N00",
        "secret":"7ef4f35103",
        "server":"1816",
        "farm":2,
        "title":"OldenCam",
        "ispublic":1,
        "isfriend":0,
        "isfamily":0
      },
      {
        "id":"43048464145",
        "owner":"141225291@N03",
        "secret":"f3e554528a",
        "server":"1791",
        "farm":2,
        "title":"Israel, Hamas agree truce to end Gaza flare-up: Palestinian officials",
        "ispublic":1,
        "isfriend":0,
        "isfamily":0
      },
      {
        "id":"43235100124",
        "owner":"165511534@N04",
        "secret":"6ce6d13abe",
        "server":"1838",
        "farm":2,
        "title":"How to do  Easy French Braid Hairstyle   for Long  to short Hair\/Beautiful Hairstyles for Ladies",
        "ispublic":1,
        "isfriend":0,
        "isfamily":0
      },
      {
        "id":"43235101934",
        "owner":"161701162@N02",
        "secret":"c125a0d01c",
        "server":"940",
        "farm":1,
        "title":"Raining time",
        "ispublic":1,
        "isfriend":0,
        "isfamily":0
      },
      {
        "id":"43235109254",
        "owner":"151166002@N06",
        "secret":"dfec48bb7d",
        "server":"933",
        "farm":1,
        "title":"Village Saint Enogat -Dinard -Bretagne",
        "ispublic":1,
        "isfriend":0,
        "isfamily":0
      },
      {
        "id":"43235110204",
        "owner":"143127738@N07",
        "secret":"f41f3770ff",
        "server":"939",
        "farm":1,
        "title":"#\ud63c\uc804\uc5f0\uc560 #\ucc29\ud55c\uc139\uc2a4 #\uc0c1\ub85d\uc218",
        "ispublic":1,
        "isfriend":0,
        "isfamily":0
      },
      {
        "id":"43235110924",
        "owner":"145864415@N05",
        "secret":"a1b53e6a94",
        "server":"1796",
        "farm":2,
        "title":"Modern Strike Online Hack Updates August 07, 2018 at 09:05PM",
        "ispublic":1,
        "isfriend":0,
        "isfamily":0
      },
      {
        "id":"43235110994",
        "owner":"162731833@N04",
        "secret":"0426b0cbfd",
        "server":"1820",
        "farm":2,
        "title":"Romantic Love Quotes :  http:\/\/iglovequotes.net\/",
        "ispublic":1,
        "isfriend":0,
        "isfamily":0
      },
      {
        "id":"43235114144",
        "owner":"87695631@N05",
        "secret":"d02140c334",
        "server":"857",
        "farm":1,
        "title":"Five Minutes: Seaport, Boston MA",
        "ispublic":1,
        "isfriend":0,
        "isfamily":0
      },
      {
        "id":"43235114234",
        "owner":"159319493@N06",
        "secret":"2a48c86fca",
        "server":"1791",
        "farm":2,
        "title":"Nude",
        "ispublic":1,
        "isfriend":0,
        "isfamily":0
      },
      {
        "id":"43235115084",
        "owner":"162320124@N07",
        "secret":"122d5dfb40",
        "server":"936",
        "farm":1,
        "title":"\ud83c\udf38 Cheery blossom again @uw Spring finally has officially arrived Seattle ! \ud83c\udf38 . . . . . . . . . . . . . . \ud83c\udf38 ------ Follow @peggycorgis Credited by @pino.the.corgi Envious photo. #corgisleepy #corgiswims #corgisg",
        "ispublic":1,
        "isfriend":0,
        "isfamily":0
      },
      {
        "id":"43235115584",
        "owner":"47970473@N06",
        "secret":"9f24034520",
        "server":"1839",
        "farm":2,
        "title":"https:\/\/ift.tt\/2vXRQOS",
        "ispublic":1,
        "isfriend":0,
        "isfamily":0
      },
      {
        "id":"43235116724",
        "owner":"64943649@N07",
        "secret":"86da2f5d9b",
        "server":"933",
        "farm":1,
        "title":"Maid-Mandy_The-Maiden-Warrior",
        "ispublic":1,
        "isfriend":0,
        "isfamily":0
      },
      {
        "id":"43235118954",
        "owner":"145945633@N02",
        "secret":"8679f85962",
        "server":"931",
        "farm":1,
        "title":"DSC06135.jpg",
        "ispublic":1,
        "isfriend":0,
        "isfamily":0
      },
      {
        "id":"43235119914",
        "owner":"154850582@N05",
        "secret":"1055718bde",
        "server":"849",
        "farm":1,
        "title":"Best BMW Models : MINI Unveils More JCW Tuning Options at the Essen Motor Show - www.bmwblog.com\/....",
        "ispublic":1,
        "isfriend":0,
        "isfamily":0
      },
      {
        "id":"43235120904",
        "owner":"161985474@N05",
        "secret":"1666e80e17",
        "server":"1816",
        "farm":2,
        "title":"Best BMW Models : MINI Unveils More JCW Tuning Options at the Essen Motor Show - www.bmwblog.com\/....",
        "ispublic":1,
        "isfriend":0,
        "isfamily":0
      },
      {
        "id":"43235121984",
        "owner":"140528596@N04",
        "secret":"e06b4ce82c",
        "server":"1816",
        "farm":2,
        "title":"Best BMW Models : MINI Unveils More JCW Tuning Options at the Essen Motor Show - www.bmwblog.com\/....",
        "ispublic":1,
        "isfriend":0,
        "isfamily":0
      },
      {
        "id":"43235122294",
        "owner":"98261673@N03",
        "secret":"44d3b73944",
        "server":"1791",
        "farm":2,
        "title":"jfk balls over heads",
        "ispublic":1,
        "isfriend":0,
        "isfamily":0
      },
      {
        "id":"43235123064",
        "owner":"164758095@N05",
        "secret":"1e0f0c2904",
        "server":"859",
        "farm":1,
        "title":"IMG_20180520_093404",
        "ispublic":1,
        "isfriend":0,
        "isfamily":0
      },
      {
        "id":"43235125304",
        "owner":"153842643@N06",
        "secret":"f0e1d26218",
        "server":"1835",
        "farm":2,
        "title":"Lauren &amp; Tony Dungy Talk About Representation and Inclusivity In New Sports Book Series",
        "ispublic":1,
        "isfriend":0,
        "isfamily":0
      },
      {
        "id":"43235126294",
        "owner":"36056629@N06",
        "secret":"ac5074cf37",
        "server":"934",
        "farm":1,
        "title":"NR8A1442-7.jpg",
        "ispublic":1,
        "isfriend":0,
        "isfamily":0
      },
      {
        "id":"43235127794",
        "owner":"26648701@N07",
        "secret":"1760876fa9",
        "server":"932",
        "farm":1,
        "title":"",
        "ispublic":1,
        "isfriend":0,
        "isfamily":0
      },
      {
        "id":"43235128714",
        "owner":"139837645@N02",
        "secret":"724930e767",
        "server":"1811",
        "farm":2,
        "title":"IMG-20180808-WA0057",
        "ispublic":1,
        "isfriend":0,
        "isfamily":0
      },
      {
        "id":"43235129094",
        "owner":"151955874@N08",
        "secret":"368f96baf4",
        "server":"1793",
        "farm":2,
        "title":"10 scariest theories known to man",
        "ispublic":1,
        "isfriend":0,
        "isfamily":0
      },
      {
        "id":"43905497682",
        "owner":"156332850@N02",
        "secret":"a448c0c203",
        "server":"862",
        "farm":1,
        "title":"",
        "ispublic":1,
        "isfriend":0,
        "isfamily":0
      },
      {
        "id":"43905497772",
        "owner":"141494235@N04",
        "secret":"9faac9134d",
        "server":"1794",
        "farm":2,
        "title":"Shiny bottle",
        "ispublic":1,
        "isfriend":0,
        "isfamily":0
      },
      {
        "id":"43905499282",
        "owner":"139047105@N07",
        "secret":"601a37ebd2",
        "server":"856",
        "farm":1,
        "title":"",
        "ispublic":1,
        "isfriend":0,
        "isfamily":0
      },
      {
        "id":"43905499782",
        "owner":"141709095@N02",
        "secret":"f36af533de",
        "server":"1796",
        "farm":2,
        "title":"So happy that it\u2019s all finally coming together \ud83d\ude0a\u2764\ufe0f",
        "ispublic":1,
        "isfriend":0,
        "isfamily":0
      },
      {
        "id":"43905507342",
        "owner":"165778973@N02",
        "secret":"5da44bd99d",
        "server":"939",
        "farm":1,
        "title":"Infographics : How to Say \u2018Friend\u2019 Around the World #infographic #HowTo #Friend #language",
        "ispublic":1,
        "isfriend":0,
        "isfamily":0
      },
      {
        "id":"43905509712",
        "owner":"159739859@N02",
        "secret":"4359827af6",
        "server":"1831",
        "farm":2,
        "title":"#\ube44\ubc00\ub370\uc774\ud305 #\uc5b4\ud50c\ucc44\ud305\ucd94\ucc9c #\ub0a8\uc815\ub3d9",
        "ispublic":1,
        "isfriend":0,
        "isfamily":0
      },
      {
        "id":"43905510802",
        "owner":"33983732@N02",
        "secret":"c1274ee6f0",
        "server":"1833",
        "farm":2,
        "title":"Adult Bald Eagle seen near Wolfville,NS on 8-09-2018.",
        "ispublic":1,
        "isfriend":0,
        "isfamily":0
      },
      {
        "id":"43905510972",
        "owner":"48423781@N04",
        "secret":"a33aabd38c",
        "server":"1815",
        "farm":2,
        "title":"[New post] Special delivery from your Tumblr Dashboard https:\/\/t.co\/gfpIO2ayIb",
        "ispublic":1,
        "isfriend":0,
        "isfamily":0
      },
      {
        "id":"43905512592",
        "owner":"140346801@N03",
        "secret":"a4d1d9f449",
        "server":"1839",
        "farm":2,
        "title":"From Internet Camera Manasquan (B0:C5:54:26:AC:2E), 2018\/08\/09 17:41:19D",
        "ispublic":1,
        "isfriend":0,
        "isfamily":0
      },
      {
        "id":"43905512792",
        "owner":"157239102@N05",
        "secret":"d69c691e14",
        "server":"942",
        "farm":1,
        "title":"Record by Always E-mail[Image], 2016-01-06 22:40:34",
        "ispublic":1,
        "isfriend":0,
        "isfamily":0
      },
      {
        "id":"43905515652",
        "owner":"24451196@N00",
        "secret":"2eabd4824e",
        "server":"1795",
        "farm":2,
        "title":"Fog Along the Shore",
        "ispublic":1,
        "isfriend":0,
        "isfamily":0
      },
      {
        "id":"43905516382",
        "owner":"158347690@N02",
        "secret":"6c1caf8798",
        "server":"853",
        "farm":1,
        "title":"TRY JELASTIC FOR FREE WITH JUST A SIMPLE CLICK",
        "ispublic":1,
        "isfriend":0,
        "isfamily":0
      },
      {
        "id":"43953686321",
        "owner":"149370004@N05",
        "secret":"ee6e3ab4fe",
        "server":"859",
        "farm":1,
        "title":"S.A.F.S Complete scratchbuld",
        "ispublic":1,
        "isfriend":0,
        "isfamily":0
      },
      {
        "id":"43953686851",
        "owner":"142989570@N06",
        "secret":"d078e704c1",
        "server":"848",
        "farm":1,
        "title":"IMG_1427",
        "ispublic":1,
        "isfriend":0,
        "isfamily":0
      },
      {
        "id":"43953687461",
        "owner":"164855778@N08",
        "secret":"599befa57d",
        "server":"1838",
        "farm":2,
        "title":"La pi\u00f9 recente collezione da sposa di Cathleen Jia &#124;  Anima poetica",
        "ispublic":1,
        "isfriend":0,
        "isfamily":0
      },
      {
        "id":"43953692211",
        "owner":"133513081@N04",
        "secret":"3455190cbd",
        "server":"849",
        "farm":1,
        "title":"Saint Vaast-la-Hougue, Cotentin, \u00eele de Tatihou, le fort et la tour Vauban",
        "ispublic":1,
        "isfriend":0,
        "isfamily":0
      },
      {
        "id":"43953693201",
        "owner":"145814683@N06",
        "secret":"03c494f820",
        "server":"1772",
        "farm":2,
        "title":"",
        "ispublic":1,
        "isfriend":0,
        "isfamily":0
      },
      {
        "id":"43953693651",
        "owner":"142975878@N07",
        "secret":"54900a7703",
        "server":"858",
        "farm":1,
        "title":"InnovaGoods Solar Anti-Mosquito Garden Lamp SL-700",
        "ispublic":1,
        "isfriend":0,
        "isfamily":0
      },
      {
        "id":"43953694001",
        "owner":"49322136@N00",
        "secret":"c7426e9b1f",
        "server":"1796",
        "farm":2,
        "title":"dk-the-drummer-1808-18",
        "ispublic":1,
        "isfriend":0,
        "isfamily":0
      },
      {
        "id":"43953699421",
        "owner":"49571078@N06",
        "secret":"a5cfaefe75",
        "server":"1797",
        "farm":2,
        "title":"20180807_132857",
        "ispublic":1,
        "isfriend":0,
        "isfamily":0
      },
      {
        "id":"43953700141",
        "owner":"93248300@N05",
        "secret":"3a2a43ae8c",
        "server":"1800",
        "farm":2,
        "title":"Cold and overcast day outside of Amsterdam, Netherlands.",
        "ispublic":1,
        "isfriend":0,
        "isfamily":0
      }
    ]
  },
  "stat":"ok"
}